<?xml version="1.0" encoding="UTF-8" standalone="no"?>
<svg
   viewBox="0 0 30 30"
   id="svg2"
   version="1.1"
   xmlns="http://www.w3.org/2000/svg"
   xmlns:svg="http://www.w3.org/2000/svg"
   xmlns:rdf="http://www.w3.org/1999/02/22-rdf-syntax-ns#"
   xmlns:cc="http://creativecommons.org/ns#"
   xmlns:dc="http://purl.org/dc/elements/1.1/">
  <path
     d="M 15.265625 6.0058594 A 9.0000274 9.0000274 0 0 0 6.0019531 15.001953 A 9.0000274 9.0000274 0 0 0 24.001953 15.001953 A 9.0000274 9.0000274 0 0 0 15.265625 6.0058594 z M 11.466797 10.048828 L 15.001953 13.583984 L 15.5 13.085938 L 18.537109 10.048828 L 19.951172 11.462891 L 16.416016 15 L 19.951172 18.535156 L 18.537109 19.949219 L 15.001953 16.414062 L 11.466797 19.949219 L 10.050781 18.535156 L 13.585938 15 L 10.050781 11.462891 L 11.466797 10.048828 z "
     id="path4"
     style="fill:#6d2229;fill-opacity:1" />
</svg>
