<?xml version="1.0" encoding="UTF-8" standalone="no"?>
<svg
   viewBox="0 0 22 22"
   id="svg2"
   version="1.1"
   xmlns="http://www.w3.org/2000/svg"
   xmlns:svg="http://www.w3.org/2000/svg">
  <defs
     id="defs8" />
  <path
     style="fill:#484848;fill-opacity:1"
     d="M 0,0 V 22 H 22 V 0 Z m 10,4 h 1 v 7 h 7 v 1 h -7 v 7 H 10 V 12 H 3 v -1 h 7 z"
     id="path2" />
</svg>
