<?xml version="1.0" encoding="UTF-8" standalone="no"?>
<svg
   viewBox="0 0 0.99999999 21.999998"
   version="1.1"
   id="svg1678"
   sodipodi:docname="selected_back.svg"
   inkscape:version="1.2.1 (9c6d41e410, 2022-07-14, custom)"
   xmlns:inkscape="http://www.inkscape.org/namespaces/inkscape"
   xmlns:sodipodi="http://sodipodi.sourceforge.net/DTD/sodipodi-0.dtd"
   xmlns="http://www.w3.org/2000/svg"
   xmlns:svg="http://www.w3.org/2000/svg">
  <defs
     id="defs1682" />
  <sodipodi:namedview
     id="namedview1680"
     pagecolor="#000000"
     bordercolor="#eeeeee"
     borderopacity="1"
     inkscape:pageshadow="0"
     inkscape:pageopacity="0"
     inkscape:pagecheckerboard="0"
     showgrid="false"
     inkscape:zoom="32.153006"
     inkscape:cx="-16.499235"
     inkscape:cy="11.040958"
     inkscape:current-layer="svg1678"
     inkscape:showpageshadow="2"
     inkscape:deskcolor="#000000"
     inkscape:window-width="1920"
     inkscape:window-height="1007"
     inkscape:window-x="0"
     inkscape:window-y="0"
     inkscape:window-maximized="1" />
  <g
     transform="translate(0-1030.36)"
     color="#000"
     id="g1676"
     style="fill:#17786e;fill-opacity:1">
    <path
       fill="#eff0f1"
       d="m0 1030.36h1v22h-1z"
       id="path1672"
       style="fill:#17786e;fill-opacity:1" />
    <path
       fill="#3daee9"
       d="m0 1030.36h1v22h-1z"
       id="path1674"
       style="fill:#17786e;fill-opacity:1" />
  </g>
</svg>
