<?xml version="1.0" encoding="UTF-8" standalone="no"?>
<svg
   viewBox="0 0 0.99999999 21.999998"
   id="svg2"
   version="1.1"
   sodipodi:docname="unselected_right.svg"
   inkscape:version="1.2.1 (9c6d41e410, 2022-07-14, custom)"
   xmlns:inkscape="http://www.inkscape.org/namespaces/inkscape"
   xmlns:sodipodi="http://sodipodi.sourceforge.net/DTD/sodipodi-0.dtd"
   xmlns="http://www.w3.org/2000/svg"
   xmlns:svg="http://www.w3.org/2000/svg"
   xmlns:rdf="http://www.w3.org/1999/02/22-rdf-syntax-ns#"
   xmlns:cc="http://creativecommons.org/ns#"
   xmlns:dc="http://purl.org/dc/elements/1.1/">
  <sodipodi:namedview
     id="namedview9"
     pagecolor="#ffffff"
     bordercolor="#000000"
     borderopacity="0.25"
     inkscape:showpageshadow="2"
     inkscape:pageopacity="0.0"
     inkscape:pagecheckerboard="0"
     inkscape:deskcolor="#d1d1d1"
     showgrid="false"
     inkscape:zoom="33.77273"
     inkscape:cx="0.51816954"
     inkscape:cy="10.985194"
     inkscape:window-width="1920"
     inkscape:window-height="1007"
     inkscape:window-x="0"
     inkscape:window-y="0"
     inkscape:window-maximized="1"
     inkscape:current-layer="svg2" />
  <metadata
     id="metadata15">
    <rdf:RDF>
      <cc:Work
         rdf:about="">
        <dc:format>image/svg+xml</dc:format>
        <dc:type
           rdf:resource="http://purl.org/dc/dcmitype/StillImage" />
      </cc:Work>
    </rdf:RDF>
  </metadata>
  <defs
     id="defs4">
    <linearGradient
       x2="205.45"
       x1="251.46"
       gradientTransform="matrix(.47513 0 0 .01 932.88-2.883)"
       gradientUnits="userSpaceOnUse"
       id="0">
      <stop
         stop-color="#515a63"
         id="stop7" />
      <stop
         offset="1"
         stop-color="#474f57"
         id="stop9" />
    </linearGradient>
  </defs>
  <path
     transform="matrix(0 1-1 0 0-1030.36)"
     fill="url(#0)"
     d="m1030.36-1h22v1h-22z"
     id="path11"
     style="fill:#2a2e32;fill-opacity:1" />
</svg>
